quartus_prj/simulation/qsim/serializer.msim.vcd
$comment
	File created using the following command:
		vcd file serializer.msim.vcd -direction
$end
$date
	Fri Dec 29 20:49:47 2023
$end
$version
	ModelSim Version 10.5b
$end
$timescale
	1ps
$end

$scope module serializer_vlg_vec_tst $end
$var reg 1 ! clk_i $end
$var reg 16 " data_i [15:0] $end
$var reg 4 # data_mod_i [3:0] $end
$var reg 1 $ data_val_i $end
$var reg 1 % srst_i $end
$var wire 1 & busy_o $end
$var wire 1 ' ser_data_o $end
$var wire 1 ( ser_data_val_o $end

$scope module i1 $end
$var wire 1 ) gnd $end
$var wire 1 * vcc $end
$var wire 1 + unknown $end
$var tri1 1 , devclrn $end
$var tri1 1 - devpor $end
$var tri1 1 . devoe $end
$var wire 1 / ~QUARTUS_CREATED_GND~I_combout $end
$var wire 1 0 clk_i~input_o $end
$var wire 1 1 clk_i~inputCLKENA0_outclk $end
$var wire 1 2 data_i[4]~input_o $end
$var wire 1 3 data_buf[4]~feeder_combout $end
$var wire 1 4 data_i[11]~input_o $end
$var wire 1 5 data_mod_i[0]~input_o $end
$var wire 1 6 data_mod_i[3]~input_o $end
$var wire 1 7 data_mod_i[1]~input_o $end
$var wire 1 8 data_mod_i[2]~input_o $end
$var wire 1 9 WideNor0~combout $end
$var wire 1 : data_val_i~input_o $end
$var wire 1 ; srst_i~input_o $end
$var wire 1 < counter~3_combout $end
$var wire 1 = counter[3]~5_combout $end
$var wire 1 > counter[1]~4_combout $end
$var wire 1 ? always2~2_combout $end
$var wire 1 @ counter[1]~0_combout $end
$var wire 1 A Add1~0_combout $end
$var wire 1 B always2~3_combout $end
$var wire 1 C Add1~1_combout $end
$var wire 1 D counter[2]~1_combout $end
$var wire 1 E Add1~2_combout $end
$var wire 1 F counter[3]~2_combout $end
$var wire 1 G next_state.WORK_S~0_combout $end
$var wire 1 H state~4_combout $end
$var wire 1 I state.WORK_S~q $end
$var wire 1 J always2~1_combout $end
$var wire 1 K data_i[6]~input_o $end
$var wire 1 L data_buf[6]~feeder_combout $end
$var wire 1 M data_i[9]~input_o $end
$var wire 1 N data_i[2]~input_o $end
$var wire 1 O data_buf[2]~feeder_combout $end
$var wire 1 P data_i[13]~input_o $end
$var wire 1 Q data_i[0]~input_o $end
$var wire 1 R data_buf[0]~feeder_combout $end
$var wire 1 S data_i[15]~input_o $end
$var wire 1 T Mux0~3_combout $end
$var wire 1 U data_i[10]~input_o $end
$var wire 1 V data_buf[10]~feeder_combout $end
$var wire 1 W data_i[5]~input_o $end
$var wire 1 X data_i[14]~input_o $end
$var wire 1 Y data_buf[14]~feeder_combout $end
$var wire 1 Z data_i[1]~input_o $end
$var wire 1 [ data_i[12]~input_o $end
$var wire 1 \ data_buf[12]~feeder_combout $end
$var wire 1 ] data_i[3]~input_o $end
$var wire 1 ^ data_i[8]~input_o $end
$var wire 1 _ data_buf[8]~feeder_combout $end
$var wire 1 ` data_i[7]~input_o $end
$var wire 1 a Mux0~2_combout $end
$var wire 1 b data_buf[3]~feeder_combout $end
$var wire 1 c data_buf[7]~feeder_combout $end
$var wire 1 d data_buf[5]~feeder_combout $end
$var wire 1 e data_buf[1]~feeder_combout $end
$var wire 1 f Mux0~1_combout $end
$var wire 1 g data_buf[15]~feeder_combout $end
$var wire 1 h data_buf[13]~feeder_combout $end
$var wire 1 i data_buf[9]~feeder_combout $end
$var wire 1 j data_buf[11]~feeder_combout $end
$var wire 1 k Mux0~0_combout $end
$var wire 1 l Mux0~4_combout $end
$var wire 1 m counter [3] $end
$var wire 1 n counter [2] $end
$var wire 1 o counter [1] $end
$var wire 1 p counter [0] $end
$var wire 1 q data_buf [15] $end
$var wire 1 r data_buf [14] $end
$var wire 1 s data_buf [13] $end
$var wire 1 t data_buf [12] $end
$var wire 1 u data_buf [11] $end
$var wire 1 v data_buf [10] $end
$var wire 1 w data_buf [9] $end
$var wire 1 x data_buf [8] $end
$var wire 1 y data_buf [7] $end
$var wire 1 z data_buf [6] $end
$var wire 1 { data_buf [5] $end
$var wire 1 | data_buf [4] $end
$var wire 1 } data_buf [3] $end
$var wire 1 ~ data_buf [2] $end
$var wire 1 !! data_buf [1] $end
$var wire 1 "! data_buf [0] $end
$upscope $end
$upscope $end
$enddefinitions $end
#0
$dumpvars
0!
b1100110001111001 "
b0 #
0$
0%
0&
0'
0(
0)
1*
x+
1,
1-
1.
0/
00
01
12
13
14
05
06
07
08
09
0:
0;
0<
1=
0>
1?
0@
0A
0B
0C
0D
0E
0F
0G
0H
0I
0J
1K
1L
0M
0N
0O
0P
1Q
1R
1S
0T
1U
1V
1W
1X
1Y
0Z
0[
0\
1]
0^
0_
0`
0a
1b
0c
1d
0e
0f
1g
0h
0i
1j
0k
0l
0p
0o
0n
0m
0"!
0!!
0~
0}
0|
0{
0z
0y
0x
0w
0v
0u
0t
0s
0r
0q
$end
#10000
1!
10
11
#20000
0!
00
01
#30000
b100110001111001 "
b110001111001 "
b10110001111001 "
b10100001111001 "
b10101001111001 "
b10101101111001 "
b10101111111001 "
b10101110111001 "
b10101110011001 "
b10101110011011 "
1!
1Z
0W
0K
1`
1^
1M
0U
1P
0X
0S
10
11
0g
0Y
1h
0V
1i
1_
1c
0L
0d
1e
#40000
0!
00
01
#50000
1!
10
11
#60000
b10001110011011 "
b10001110001011 "
b10001110001010 "
b10001010001010 "
b10001011001010 "
b10001011101010 "
b10001011101000 "
0!
0Q
0Z
02
1W
1K
0^
04
00
01
0j
0_
1L
1d
03
0e
0R
#70000
1!
10
11
#80000
0!
00
01
#90000
b10001011100000 "
b1010001011100000 "
b1010011011100000 "
b1010010011100000 "
b1010010001100000 "
b1010110001100000 "
b1010110001110000 "
b1010110101110000 "
b1010110100110000 "
b1010110100010000 "
1!
0]
12
0W
0K
0`
1^
0M
1U
14
1S
10
11
1g
1j
1V
0i
1_
0c
0L
0d
13
0b
#100000
0!
00
01
#110000
1!
10
11
#120000
b1010110100010100 "
b1010110100011100 "
b1010100100011100 "
b1010101100011100 "
b1010001100011100 "
b1010001000011100 "
b1010001000111100 "
0!
1N
1]
1W
0^
1M
0U
04
00
01
0j
0V
1i
0_
1d
1b
1O
#130000
1!
10
11
#140000
0!
00
01
#150000
b1011001000111100 "
b1011001000111101 "
b1011001000111111 "
b11001000111111 "
b11001010111111 "
b11001010111011 "
b11001010110011 "
b11000010110011 "
b11100010110011 "
b11100110110011 "
b11100110010011 "
1!
1Q
1Z
0N
0]
0W
1`
1^
0M
14
1[
0S
10
11
0g
1\
1j
0i
1_
1c
0d
0b
0O
1e
1R
#160000
0!
00
01
#170000
1!
10
11
#180000
b1100110010011 "
b1100110000011 "
b1110110000011 "
b1110110000010 "
b1111110000010 "
b1011110000010 "
b1011010000010 "
0!
0Q
02
0^
1M
1U
04
0P
00
01
0h
0j
1V
1i
0_
03
0R
#190000
1!
10
11
#200000
0!
00
01
#210000
b11010000010 "
b1000011010000010 "
b1000011010001010 "
b1000011010101010 "
b1010011010101010 "
b1010001010101010 "
b1010101010101010 "
1!
1]
1W
0U
14
0[
1P
1S
10
11
1g
1h
0\
1j
0V
1d
1b
#220000
1$
0!
1:
00
01
1J
1E
1C
0?
1A
1H
#230000
1!
10
11
1u
1w
1s
1q
1!!
1{
1y
1}
1I
1(
1&
1f
1k
0J
0E
0C
0=
0A
1D
1<
1l
1'
0D
#240000
b1010101010101000 "
b1010101010101100 "
b1010101010101101 "
b1010100010101101 "
b1010100110101101 "
b1011100110101101 "
b1011110110101101 "
0$
0!
1Q
0Z
1N
1^
0M
1U
1[
0:
00
01
1\
1V
0i
1_
1O
0e
1R
#250000
1!
10
11
1p
0l
1@
0<
0'
#260000
0!
00
01
#270000
b1111110110101101 "
b1111110100101101 "
b1111110100100101 "
b1111110100000101 "
b1101110100000101 "
b1101010100000101 "
b1101010100000111 "
b1101010100000011 "
b1101010100000010 "
b1101000100000010 "
1!
0Q
1Z
0N
0]
0W
0`
0U
04
0P
1X
10
11
1Y
0h
0j
0V
0c
0d
0b
0O
1e
0R
1o
0p
1l
1<
1'
#280000
0!
00
01
#290000
1!
10
11
1p
1A
0l
0@
0<
0'
1D
#300000
b1101000101000010 "
b1101000101010010 "
b1101001101010010 "
b1101001001010010 "
b1001001001010010 "
b1001001001011010 "
b1001001001111010 "
b1001101001111010 "
b1001101001111000 "
0!
0Z
1]
12
1W
1K
0^
1M
14
0X
00
01
0Y
1j
1i
0_
1L
1d
13
1b
0e
#310000
1!
10
11
1n
0o
0p
0A
1C
1l
1<
1'
#320000
0!
00
01
#330000
b1011101001111000 "
b1011101101111000 "
b1011101101110000 "
b1011101101010000 "
b1011101101010010 "
1!
1Z
0]
0W
1^
1P
10
11
1h
1_
0d
0b
1e
1p
0l
1@
0<
0'
#340000
0!
00
01
#350000
1!
10
11
1o
0p
1l
1<
1'
#360000
b11101101010010 "
b10101101010010 "
b10111101010010 "
b10111100010010 "
b10111100000010 "
b110111100000010 "
b100111100000010 "
b100111000000010 "
b100111000000000 "
0!
0Z
02
0K
0^
1U
0[
0P
1X
0S
00
01
0g
1Y
0h
0\
1V
0_
0L
03
0e
#370000
1!
10
11
1p
1A
0l
0@
0<
0'
1F
0D
#380000
0!
00
01
#390000
b100111000000100 "
b100111000000101 "
b100110000000101 "
b100010000000101 "
b100010000100101 "
b100000000100101 "
b100000001100101 "
b100000001100111 "
1!
1Q
1Z
1N
1W
1K
0M
0U
04
10
11
0j
0V
0i
1L
1d
1O
1e
1R
1m
0n
0o
0p
0A
0C
1E
1l
1<
1'
#400000
0!
00
01
#410000
1!
10
11
1p
0l
1@
0<
0'
#420000
b100000011100111 "
b100000011101111 "
b101000011101111 "
b101000011111111 "
b1000011111111 "
b1000111111111 "
b1000111111011 "
b1100111111011 "
b1110111111011 "
0!
0N
1]
12
1`
1^
1U
14
1[
0X
00
01
0Y
1\
1j
1V
1_
1c
13
1b
0O
#430000
1!
10
11
1o
0p
1l
1<
1'
#440000
0!
00
01
#450000
b11110111111011 "
b11111111111011 "
b11111111110011 "
b11111111100011 "
b111111111100011 "
b111111111100111 "
b111011111100111 "
1!
1N
0]
02
1M
04
1P
1X
10
11
1Y
1h
0j
1i
03
0b
1O
1p
1A
0l
0@
0<
0'
1D
#460000
0!
00
01
#470000
1!
10
11
1n
0o
0p
0A
1C
1l
1<
1'
#480000
b111011111100110 "
b111011110100110 "
b111011100100110 "
b101011100100110 "
b101011100101110 "
b1011100101110 "
0!
0Q
1]
0K
0`
0P
0X
00
01
0Y
0h
0c
0L
1b
0R
#490000
1!
10
11
1p
0l
1@
0<
0'
#500000
0!
00
01
#510000
b1011100101100 "
b1011100111100 "
b1011100111000 "
b1011101111000 "
b1011111111000 "
1!
0Z
0N
12
1K
1`
10
11
1c
1L
13
0O
0e
1o
0p
1l
1<
1'
#520000
0!
00
01
#530000
1!
10
11
1p
1G
1A
0l
0@
0<
0'
0F
0D
0H
#540000
b11111111000 "
b11011111000 "
b1011111000 "
b11111000 "
b100011111000 "
b100011111001 "
b10100011111001 "
b10100011110001 "
b110100011110001 "
b110100011100001 "
b110100011100101 "
0!
1Q
1N
0]
02
0^
0M
0U
14
0[
1P
1X
00
01
1Y
1h
0\
1j
0V
0i
0_
03
0b
1O
1R
#550000
1!
10
11
0m
0n
0o
0p
0I
0(
0&
0G
0A
0C
0E
1?
1=
#560000
0!
00
01
#570000
b1110100011100101 "
b1110110011100101 "
b1110010011100101 "
b1110010011101101 "
1!
1]
1U
04
1S
10
11
1g
0j
1V
1b
#580000
0!
00
01
#590000
1!
10
11
#600000
b1110010011101111 "
b1100010011101111 "
b1000010011101111 "
b1000010011111111 "
b1000000011111111 "
b1000100011111111 "
0!
1Z
12
0U
14
0P
0X
00
01
0Y
0h
1j
0V
13
1e
#610000
1!
10
11
#620000
0!
00
01
#630000
b1000100011011111 "
b1000100010011111 "
b1000100000011111 "
b1000101000011111 "
b1000101000011110 "
b1000101000010110 "
b1100101000010110 "
b1100101000000110 "
b1100111000000110 "
b1100011000000110 "
1!
0Q
0]
02
0W
0K
0`
1M
1U
04
1X
10
11
1Y
0j
1V
1i
0c
0L
0d
03
0b
0R
#640000
0!
00
01
#650000
1!
10
11
#660000
b1101011000000110 "
b1101011100000110 "
b101011100000110 "
b111011100000110 "
b111011100100110 "
b111011101100110 "
b111011111100110 "
b111011111100111 "
b111011111101111 "
b111011111111111 "
b111001111111111 "
0!
1Q
1]
12
1W
1K
1`
1^
0U
1[
1P
0S
00
01
0g
1h
1\
0V
1_
1c
1L
1d
13
1b
1R
#670000
1!
10
11
#680000
b111001111111011 "
b111001111111001 "
b111000111111001 "
b11000111111001 "
b10000111111001 "
b10000011111001 "
b11111001 "
b11011001 "
b10011001 "
b11001 "
b11000 "
b10000 "
b0 "
0!
0Q
0Z
0N
0]
02
0W
0K
0`
0^
0M
0[
0P
0X
00
01
0Y
0h
0\
0i
0_
0c
0L
0d
03
0b
0O
0e
0R
